{
    "parent": "endershop:endershop/taste_own",
    "display": {
        "icon": {
            "item": "minecraft:evoker_spawn_egg"
        },
        "title": "不适III",
        "description": "击败唤魔者"
    },
    "criteria": {
        "evoker": {
            "trigger": "player_killed_entity",
            "conditions": {
                "entity": {
                    "type": "evoker"
                }
            }
        }
    }
}